<?xml version="1.0" encoding="UTF-8"?>
<session version="1.0">
<refactoring comment="Delete resource &apos;multipart_upload_example&apos;" deleteContents="false" description="Delete resource &apos;multipart_upload_example&apos;" element1="/multipart_upload_example" flags="7" id="org.eclipse.ltk.core.refactoring.delete.resources" resources="1" stamp="1580779946698"/>
</session>